[32mINFO    [0m TestLog:method.py:41 ---获取图文列表---，Method：get
[32mINFO    [0m TestLog:test_004_CoursesBuy.py:33 result：{'code': 0, 'msg': 'ok', 'data': {'resourceList': [{'id': 'i_5eba6c00c8626_XfAChO9G', 'resource_state': 0, 'resource_type': 1, 'is_transcode': 1, 'alive_type': -1, 'manual_stop_at': -1, 'zb_stop_at': -1, 'title': 'Pay_新建图文0MXTFK', 'piece_price': 110, 'start_at': '2020-05-12 17:27:31', 'img_url': 'http://wechatapppro-1252524126.file.myqcloud.com/apprnDA0ZDw4581/image/40e1398f32f1e75823ef505b3c17ceb6.jpg', 'img_url_compressed': 'http://wechatapppro-1252524126.file.myqcloud.com/apprnDA0ZDw4581/image/compress/41431240e1398f32f1e75823ef505b3c17ceb6.jpg', 'can_select': 1, 'config_show_view_count': 0, 'config_show_reward': 0, 'have_password': 0, 'comment_count': 0, 'is_complete_info': 0, 'recycle_bin_state': 2, 'is_stop_sell': 0, 'payment_type': 2, 'is_show_recommend_good': 1, 'purchase_count': 0, 'on_shelf': 0, 'is_ban': 0, 'pageUrl': 'https://wxdd198a901fa24220.h5.xiaoe-tech.com/content_page/eyJ0eXBlIjoiMiIsInJlc291cmNlX3R5cGUiOjEsInJlc291cmNlX2lkIjoiaV81ZWJhNmMwMGM4NjI2X1hmQUNoTzlHIiwiYXBwX2lkIjoiYXBwcm5EQTBaRHc0NTgxIiwicHJvZHVjdF9pZCI6IiJ9', 'shortPageUrl': 'https://apprnDA0ZDw4581.h5.xeknow.com/st/0H6QF1Bvq', 'query_package_list': []}, {'id': 'i_5eba6bf0aa3fb_9FdGNJC7', 'resource_state': 0, 'resource_type': 1, 'is_transcode': 1, 'alive_type': -1, 'manual_stop_at': -1, 'zb_stop_at': -1, 'title': 'Pay_裂变海报图文4YAH9Q', 'piece_price': 110, 'start_at': '2020-05-12 17:27:15', 'img_url': 'http://wechatapppro-1252524126.file.myqcloud.com/apprnDA0ZDw4581/image/40e1398f32f1e75823ef505b3c17ceb6.jpg', 'img_url_compressed': 'http://wechatapppro-1252524126.file.myqcloud.com/apprnDA0ZDw4581/image/compress/41432036540e1398f32f1e75823ef505b3c17ceb6.jpg', 'can_select': 1, 'config_show_view_count': 0, 'config_show_reward': 0, 'have_password': 0, 'comment_count': 0, 'is_complete_info': 0, 'recycle_bin_state': 0, 'is_stop_sell': 0, 'payment_type': 2, 'is_show_recommend_good': 1, 'purchase_count': 0, 'on_shelf': 0, 'is_ban': 0, 'pageUrl': 'https://wxdd198a901fa24220.h5.xiaoe-tech.com/content_page/eyJ0eXBlIjoiMiIsInJlc291cmNlX3R5cGUiOjEsInJlc291cmNlX2lkIjoiaV81ZWJhNmJmMGFhM2ZiXzlGZEdOSkM3IiwiYXBwX2lkIjoiYXBwcm5EQTBaRHc0NTgxIiwicHJvZHVjdF9pZCI6IiJ9', 'shortPageUrl': 'https://apprnDA0ZDw4581.h5.xeknow.com/st/4cZhyk6YJ', 'query_package_list': []}, {'id': 'i_5eba6aca8218b_K0Cz0Vtp', 'resource_state': 0, 'resource_type': 1, 'is_transcode': 1, 'alive_type': -1, 'manual_stop_at': -1, 'zb_stop_at': -1, 'title': 'Pay_裂变海报图文8ZL4CM', 'piece_price': 110, 'start_at': '2020-05-12 17:22:21', 'img_url': 'http://wechatapppro-1252524126.file.myqcloud.com/apprnDA0ZDw4581/image/40e1398f32f1e75823ef505b3c17ceb6.jpg', 'img_url_compressed': 'http://wechatapppro-1252524126.file.myqcloud.com/apprnDA0ZDw4581/image/compress/41432036540e1398f32f1e75823ef505b3c17ceb6.jpg', 'can_select': 1, 'config_show_view_count': 0, 'config_show_reward': 0, 'have_password': 0, 'comment_count': 0, 'is_complete_info': 0, 'recycle_bin_state': 0, 'is_stop_sell': 0, 'payment_type': 2, 'is_show_recommend_good': 1, 'purchase_count': 0, 'on_shelf': 0, 'is_ban': 0, 'pageUrl': 'https://wxdd198a901fa24220.h5.xiaoe-tech.com/content_page/eyJ0eXBlIjoiMiIsInJlc291cmNlX3R5cGUiOjEsInJlc291cmNlX2lkIjoiaV81ZWJhNmFjYTgyMThiX0swQ3owVnRwIiwiYXBwX2lkIjoiYXBwcm5EQTBaRHc0NTgxIiwicHJvZHVjdF9pZCI6IiJ9', 'shortPageUrl': 'https://apprnDA0ZDw4581.h5.xeknow.com/st/2D4rOq5wQ', 'query_package_list': []}, {'id': 'i_5eba69b05b1f1_JLz7niRs', 'resource_state': 0, 'resource_type': 1, 'is_transcode': 1, 'alive_type': -1, 'manual_stop_at': -1, 'zb_stop_at': -1, 'title': 'Pay_新建图文WT3U8E', 'piece_price': 110, 'start_at': '2020-05-12 17:17:38', 'img_url': 'http://wechatapppro-1252524126.file.myqcloud.com/apprnDA0ZDw4581/image/40e1398f32f1e75823ef505b3c17ceb6.jpg', 'img_url_compressed': 'http://wechatapppro-1252524126.file.myqcloud.com/apprnDA0ZDw4581/image/compress/41432036540e1398f32f1e75823ef505b3c17ceb6.jpg', 'can_select': 1, 'config_show_view_count': 0, 'config_show_reward': 0, 'have_password': 0, 'comment_count': 0, 'is_complete_info': 0, 'recycle_bin_state': 0, 'is_stop_sell': 0, 'payment_type': 2, 'is_show_recommend_good': 1, 'purchase_count': 1, 'on_shelf': 0, 'is_ban': 0, 'pageUrl': 'https://wxdd198a901fa24220.h5.xiaoe-tech.com/content_page/eyJ0eXBlIjoiMiIsInJlc291cmNlX3R5cGUiOjEsInJlc291cmNlX2lkIjoiaV81ZWJhNjliMDViMWYxX0pMejduaVJzIiwiYXBwX2lkIjoiYXBwcm5EQTBaRHc0NTgxIiwicHJvZHVjdF9pZCI6IiJ9', 'shortPageUrl': 'https://apprnDA0ZDw4581.h5.xeknow.com/st/57zuVHiPZ', 'query_package_list': []}, {'id': 'i_5eba69a11b732_4UnE4Gfv', 'resource_state': 0, 'resource_type': 1, 'is_transcode': 1, 'alive_type': -1, 'manual_stop_at': -1, 'zb_stop_at': -1, 'title': 'Pay_裂变海报图文NDZMO5', 'piece_price': 110, 'start_at': '2020-05-12 17:17:23', 'img_url': 'http://wechatapppro-1252524126.file.myqcloud.com/apprnDA0ZDw4581/image/40e1398f32f1e75823ef505b3c17ceb6.jpg', 'img_url_compressed': 'http://wechatapppro-1252524126.file.myqcloud.com/apprnDA0ZDw4581/image/compress/41432036540e1398f32f1e75823ef505b3c17ceb6.jpg', 'can_select': 1, 'config_show_view_count': 0, 'config_show_reward': 0, 'have_password': 0, 'comment_count': 0, 'is_complete_info': 0, 'recycle_bin_state': 0, 'is_stop_sell': 0, 'payment_type': 2, 'is_show_recommend_good': 1, 'purchase_count': 0, 'on_shelf': 0, 'is_ban': 0, 'pageUrl': 'https://wxdd198a901fa24220.h5.xiaoe-tech.com/content_page/eyJ0eXBlIjoiMiIsInJlc291cmNlX3R5cGUiOjEsInJlc291cmNlX2lkIjoiaV81ZWJhNjlhMTFiNzMyXzRVbkU0R2Z2IiwiYXBwX2lkIjoiYXBwcm5EQTBaRHc0NTgxIiwicHJvZHVjdF9pZCI6IiJ9', 'shortPageUrl': 'https://apprnDA0ZDw4581.h5.xeknow.com/st/1kEaXFjRu', 'query_package_list': []}, {'id': 'i_5eba67e1c4a66_zOuj01Wp', 'resource_state': 0, 'resource_type': 1, 'is_transcode': 1, 'alive_type': -1, 'manual_stop_at': -1, 'zb_stop_at': -1, 'title': 'Pay_新建图文PSJTH3', 'piece_price': 110, 'start_at': '2020-05-12 17:09:56', 'img_url': 'http://wechatapppro-1252524126.file.myqcloud.com/apprnDA0ZDw4581/image/40e1398f32f1e75823ef505b3c17ceb6.jpg', 'img_url_compressed': 'http://wechatapppro-1252524126.file.myqcloud.com/apprnDA0ZDw4581/image/compress/41432036540e1398f32f1e75823ef505b3c17ceb6.jpg', 'can_select': 1, 'config_show_view_count': 0, 'config_show_reward': 0, 'have_password': 0, 'comment_count': 0, 'is_complete_info': 0, 'recycle_bin_state': 0, 'is_stop_sell': 0, 'payment_type': 2, 'is_show_recommend_good': 1, 'purchase_count': 1, 'on_shelf': 0, 'is_ban': 0, 'pageUrl': 'https://wxdd198a901fa24220.h5.xiaoe-tech.com/content_page/eyJ0eXBlIjoiMiIsInJlc291cmNlX3R5cGUiOjEsInJlc291cmNlX2lkIjoiaV81ZWJhNjdlMWM0YTY2X3pPdWowMVdwIiwiYXBwX2lkIjoiYXBwcm5EQTBaRHc0NTgxIiwicHJvZHVjdF9pZCI6IiJ9', 'shortPageUrl': 'https://apprnDA0ZDw4581.h5.xeknow.com/st/1NZKd7XQh', 'query_package_list': []}, {'id': 'i_5eba6781e7fda_N45GK32Q', 'resource_state': 0, 'resource_type': 1, 'is_transcode': 1, 'alive_type': -1, 'manual_stop_at': -1, 'zb_stop_at': -1, 'title': 'Pay_新建图文MSP3RX', 'piece_price': 110, 'start_at': '2020-05-12 17:08:20', 'img_url': 'http://wechatapppro-1252524126.file.myqcloud.com/apprnDA0ZDw4581/image/40e1398f32f1e75823ef505b3c17ceb6.jpg', 'img_url_compressed': 'http://wechatapppro-1252524126.file.myqcloud.com/apprnDA0ZDw4581/image/compress/41432036540e1398f32f1e75823ef505b3c17ceb6.jpg', 'can_select': 1, 'config_show_view_count': 0, 'config_show_reward': 0, 'have_password': 0, 'comment_count': 0, 'is_complete_info': 0, 'recycle_bin_state': 0, 'is_stop_sell': 0, 'payment_type': 2, 'is_show_recommend_good': 1, 'purchase_count': 1, 'on_shelf': 0, 'is_ban': 0, 'pageUrl': 'https://wxdd198a901fa24220.h5.xiaoe-tech.com/content_page/eyJ0eXBlIjoiMiIsInJlc291cmNlX3R5cGUiOjEsInJlc291cmNlX2lkIjoiaV81ZWJhNjc4MWU3ZmRhX040NUdLMzJRIiwiYXBwX2lkIjoiYXBwcm5EQTBaRHc0NTgxIiwicHJvZHVjdF9pZCI6IiJ9', 'shortPageUrl': 'https://apprnDA0ZDw4581.h5.xeknow.com/st/2rOosDnhz', 'query_package_list': []}, {'id': 'i_5eba670d01986_DbnDxDoy', 'resource_state': 0, 'resource_type': 1, 'is_transcode': 1, 'alive_type': -1, 'manual_stop_at': -1, 'zb_stop_at': -1, 'title': 'Pay_新建图文9M1B0U', 'piece_price': 110, 'start_at': '2020-05-12 17:06:23', 'img_url': 'http://wechatapppro-1252524126.file.myqcloud.com/apprnDA0ZDw4581/image/40e1398f32f1e75823ef505b3c17ceb6.jpg', 'img_url_compressed': 'http://wechatapppro-1252524126.file.myqcloud.com/apprnDA0ZDw4581/image/compress/41432036540e1398f32f1e75823ef505b3c17ceb6.jpg', 'can_select': 1, 'config_show_view_count': 0, 'config_show_reward': 0, 'have_password': 0, 'comment_count': 0, 'is_complete_info': 0, 'recycle_bin_state': 0, 'is_stop_sell': 0, 'payment_type': 2, 'is_show_recommend_good': 1, 'purchase_count': 0, 'on_shelf': 0, 'is_ban': 0, 'pageUrl': 'https://wxdd198a901fa24220.h5.xiaoe-tech.com/content_page/eyJ0eXBlIjoiMiIsInJlc291cmNlX3R5cGUiOjEsInJlc291cmNlX2lkIjoiaV81ZWJhNjcwZDAxOTg2X0RibkR4RG95IiwiYXBwX2lkIjoiYXBwcm5EQTBaRHc0NTgxIiwicHJvZHVjdF9pZCI6IiJ9', 'shortPageUrl': 'https://apprnDA0ZDw4581.h5.xeknow.com/st/8P8XKYAWM', 'query_package_list': []}, {'id': 'i_5eba646d75050_8YQHUXtd', 'resource_state': 0, 'resource_type': 1, 'is_transcode': 1, 'alive_type': -1, 'manual_stop_at': -1, 'zb_stop_at': -1, 'title': 'Pay_新建图文DFXWRP', 'piece_price': 110, 'start_at': '2020-05-12 16:55:11', 'img_url': 'http://wechatapppro-1252524126.file.myqcloud.com/apprnDA0ZDw4581/image/40e1398f32f1e75823ef505b3c17ceb6.jpg', 'img_url_compressed': 'http://wechatapppro-1252524126.file.myqcloud.com/apprnDA0ZDw4581/image/compress/41432036540e1398f32f1e75823ef505b3c17ceb6.jpg', 'can_select': 1, 'config_show_view_count': 0, 'config_show_reward': 0, 'have_password': 0, 'comment_count': 0, 'is_complete_info': 0, 'recycle_bin_state': 0, 'is_stop_sell': 0, 'payment_type': 2, 'is_show_recommend_good': 1, 'purchase_count': 0, 'on_shelf': 0, 'is_ban': 0, 'pageUrl': 'https://wxdd198a901fa24220.h5.xiaoe-tech.com/content_page/eyJ0eXBlIjoiMiIsInJlc291cmNlX3R5cGUiOjEsInJlc291cmNlX2lkIjoiaV81ZWJhNjQ2ZDc1MDUwXzhZUUhVWHRkIiwiYXBwX2lkIjoiYXBwcm5EQTBaRHc0NTgxIiwicHJvZHVjdF9pZCI6IiJ9', 'shortPageUrl': 'https://apprnDA0ZDw4581.h5.xeknow.com/st/4uhnPP4P4', 'query_package_list': []}, {'id': 'i_5eba6042b8630_nKaWmrF6', 'resource_state': 0, 'resource_type': 1, 'is_transcode': 1, 'alive_type': -1, 'manual_stop_at': -1, 'zb_stop_at': -1, 'title': 'Pay_裂变海报图文FCUGXE', 'piece_price': 110, 'start_at': '2020-05-12 16:37:25', 'img_url': 'http://wechatapppro-1252524126.file.myqcloud.com/apprnDA0ZDw4581/image/40e1398f32f1e75823ef505b3c17ceb6.jpg', 'img_url_compressed': 'http://wechatapppro-1252524126.file.myqcloud.com/apprnDA0ZDw4581/image/compress/41432036540e1398f32f1e75823ef505b3c17ceb6.jpg', 'can_select': 1, 'config_show_view_count': 0, 'config_show_reward': 0, 'have_password': 0, 'comment_count': 0, 'is_complete_info': 0, 'recycle_bin_state': 0, 'is_stop_sell': 0, 'payment_type': 2, 'is_show_recommend_good': 1, 'purchase_count': 0, 'on_shelf': 0, 'is_ban': 0, 'pageUrl': 'https://wxdd198a901fa24220.h5.xiaoe-tech.com/content_page/eyJ0eXBlIjoiMiIsInJlc291cmNlX3R5cGUiOjEsInJlc291cmNlX2lkIjoiaV81ZWJhNjA0MmI4NjMwX25LYVdtckY2IiwiYXBwX2lkIjoiYXBwcm5EQTBaRHc0NTgxIiwicHJvZHVjdF9pZCI6IiJ9', 'shortPageUrl': 'https://apprnDA0ZDw4581.h5.xeknow.com/st/3GHE7wK67', 'query_package_list': []}], 'search_content': '', 'resource_type': '1', 'page_offset': '{"total_pages":1176,"total_count":11755,"current_page":"1","page_size":10}', 'state': '-1', 'isHasLittleProgram': True, 'balance': 1564, 'alive_state': {'alive_show_man_time_expire_time': '2025-11-14 14:32:35', 'alive_show_man_time_is_remind': 0, 'alive_exported_audio_expire_time': '2026-11-07 22:44:32', 'alive_exported_audio_is_remind': 0, 'alive_reward_expire_time': '2026-11-07 22:44:32', 'alive_reward_is_remind': 0}, 'search_alive_type': -1, 'pay_info_write': 1, 'userConfig': '{"wx_name":1,"phone":1,"wx_email":1,"wx_account":1,"birth":1,"wx_gender":1,"age":1,"wx_language":1,"wx_country":1,"wx_province":1,"wx_city":1,"address":1,"industry":1,"company":1,"job":1,"tags":1}'}}